/Users/zhuj/javalecture/java-course/week9/weekly_exercise/weekexercise/src/main/java/com/thg/accelerator/json/ErrorJson.java
/Users/zhuj/javalecture/java-course/week9/weekly_exercise/weekexercise/src/main/java/com/thg/accelerator/service/ProductService.java
/Users/zhuj/javalecture/java-course/week9/weekly_exercise/weekexercise/src/main/java/com/thg/accelerator/json/ProductTransformer.java
/Users/zhuj/javalecture/java-course/week9/weekly_exercise/weekexercise/src/main/java/com/thg/accelerator/App.java
/Users/zhuj/javalecture/java-course/week9/weekly_exercise/weekexercise/src/main/java/com/thg/accelerator/json/NewProductJason.java
/Users/zhuj/javalecture/java-course/week9/weekly_exercise/weekexercise/src/main/java/com/thg/accelerator/json/ProductJson.java
/Users/zhuj/javalecture/java-course/week9/weekly_exercise/weekexercise/src/main/java/com/thg/accelerator/service/AllFieldSearchExtractor.java
/Users/zhuj/javalecture/java-course/week9/weekly_exercise/weekexercise/src/main/java/com/thg/accelerator/repository/impl/PostgresProductRepositry.java
/Users/zhuj/javalecture/java-course/week9/weekly_exercise/weekexercise/src/main/java/com/thg/accelerator/service/ServiceException.java
/Users/zhuj/javalecture/java-course/week9/weekly_exercise/weekexercise/src/main/java/com/thg/accelerator/facade/ProductFacade.java
/Users/zhuj/javalecture/java-course/week9/weekly_exercise/weekexercise/src/main/java/com/thg/accelerator/facade/FacadeErrorHandler.java
/Users/zhuj/javalecture/java-course/week9/weekly_exercise/weekexercise/src/main/java/com/thg/accelerator/repository/RepositoryException.java
/Users/zhuj/javalecture/java-course/week9/weekly_exercise/weekexercise/src/main/java/com/thg/accelerator/model/Product.java
/Users/zhuj/javalecture/java-course/week9/weekly_exercise/weekexercise/src/main/java/com/thg/accelerator/repository/ProductRepository.java
